[
  {
    "code": "color-contrast",
    "type": "error",
    "typeCode": 1,
    "message": "Elements must have sufficient color contrast (https://dequeuniversity.com/rules/axe/4.2/color-contrast?application=axeAPI)",
    "context": "<p>This has insufficient contrast<...</p>",
    "selector": "html > body > p",
    "runner": "axe",
    "runnerExtras": {
      "description": "Ensures the contrast between foreground and background colors meets WCAG 2 AA contrast ratio thresholds",
      "impact": "serious",
      "help": "Elements must have sufficient color contrast",
      "helpUrl": "https://dequeuniversity.com/rules/axe/4.2/color-contrast?application=axeAPI"
    }
  },
  {
    "code": "image-alt",
    "type": "error",
    "typeCode": 1,
    "message": "Images must have alternate text (https://dequeuniversity.com/rules/axe/4.2/image-alt?application=axeAPI)",
    "context": "<img src=\"blue-square.png\">",
    "selector": "html > body > p > img",
    "runner": "axe",
    "runnerExtras": {
      "description": "Ensures <img> elements have alternate text or a role of none or presentation",
      "impact": "critical",
      "help": "Images must have alternate text",
      "helpUrl": "https://dequeuniversity.com/rules/axe/4.2/image-alt?application=axeAPI"
    }
  }
]
